{
    "Request": {
        "Path": {
            "Matchers": [
                {
                    "Name": "WildcardMatcher",
                    "Pattern": "/pmc/api/people/2",
                    "IgnoreCase": false
                }
            ]
        },
        "Methods": [
            "GET"
        ]
    },
    "Response": {
        "StatusCode": 200,
        "BodyDestination": "SameAsSource",
        "BodyAsJson": {
            "data": [
                {
                    "id": 1,
                    "name": "Prof. dr. Co de Klopper",
                    "function": "Specialist, van van alles",
                    "intro": "Als specialist van van alles kan ik alles wat los en vast zit",
                    "content": "<p><strong>Werkervaring</strong></p>\r\n<p>1987-1991 promotie-onderzoek VU<br />1991-1995: opleiding kinderarts Vumc<br />1995-1998: fellow kinderoncologie Vumc, AMC, LUMC<br />1999-2014: hoofd kinderoncologie ErasmusMC/Sophia kinderziekenhuis<br />2007-2014: een van de initiatiefnemers van het Prinses Maxima Centrum<br />2013- heden: lid raad van bestuur Prinses Maxima Centrum<br /><br /><strong>Wetenschap<br /></strong>1991: drug resistance in childhood leukemia, VU<br />2001-2017: hoogleraar kinderoncologie Erasmus Universiteit<br />2017- heden: hoogleraar kinderoncologie Universiteit Utrecht<br /><br />Publicaties zijn beschikbaar via <a href=\"https://www.ncbi.nlm.nih.gov/pubmed?term=Rob+Pieters&amp;cmd=DetailsSearch\">PubMed</a>. </p>\r\n<p><strong>5 geselecteerde publicaties</strong><br /><br />Pieters R, Huismans DR, Loonen AH, H&auml;hlen K, van der Does-van den Berg A, van Wering ER, Veerman AJP. Relation of cellular drug resistance to long-term clinical outcome in childhood acute lymphoblastic leukemia. Lancet 1991; 338: 399-403.<br /><br />Pieters R, Schrappe M, de Lorenzo P, Hann I, de Rossi G, Felice M, Hovi L, Leblance T, Szczepanski T, Ferster A, Janka G, Rubnitz J, Silverman L, Stary J, Campbell M, Li CH, Mann G, Suppiah R, Biondi A, Vora A, Valsecchi MG. A treatment protocol for infants younger than 1 year with acute lymphoblastic leukaemia (Interfant-99) : an observational study and a multicentre randomised trial. Lancet 2007; 370:240-250.<br /><br />Boer den ML, van Slegtenhorst M, De Menezes RX, Cheok MH, Buijs-Gladdines JGCAM, Peters STCJM, van Zutven LJCM, Beverloo HB, van der Spek PJ, Escherich G, Horstmann MA, Janka/Schaub GE, Kamps WA, Evans WE, Pieters R. A subtype of childhood acute lymphoblastic leukaemia with poor treatment outcome&plusmn; a genome-wide classification study. Lancet Oncol 2009;10:125-134.<br /><br />Holleman A/Cheok MH*, den Boer ML, Yang W, Veerman AJ, Kazemier KM, Pei D, Cheng C, Pui CH, Relling MV, Janka-Schaub GE, Pieters R/Evans WE*. Gene-expression patterns in drug-resistant acute lymphoblastic leukemia cells and response to treatment.&nbsp; N Engl J Med 2004;351:533-42. (* shared 1st and last authorship)<br /><br />Pieters R, de Groot-Kruseman HA, van der Velden VHJ, Fiocco M, van den Berg H, de Bont ESJM, Egeler RM, Hoogerbrugge PM, Kaspers GJL, van der Schoot CE, de Haas V, van Dongen JJM. Successful therapy reduction and intensification for childhood acute lymphoblastic leukemia based on minimal residual disease monitoring: study ALL10 from the DCOG. J Clin Oncol 2016: 34:2591-2601.<br /><br /></p>\r\n<div class=\"contact-box bg-grey tiny-no-edit\">\r\n<div class=\"row\">\r\n<div class=\"col-md-5\"><span class=\"c-orange mceEditable\">Telefoon</span> <span class=\"mceEditable\">088-9728586</span></div>\r\n<div class=\"col-md-7\"><span class=\"c-orange mceEditable\">E-mail</span> <a class=\"mceEditable\" href=\"mailto:n.deprogrammer@prinsesmaximacentrum.nl / c.deklopper@prinsesmaximacentrum.nl\">n.deprogrammer@prinsesmaximacentrum.nl / c.deklopper@prinsesmaximacentrum.nl</a></div>\r\n</div>\r\n</div>",
                    "principal_investigator": 0,
                    "photo": "/img/healthcareprovider.jpg",
                    "photo_detail": "/img/healthcareprovider_profile.jpg",
                    "teams": [
                        {
                            "id": 1,
                            "title": "Prinses Maxima Centrum Team",
                            "intro": "We hebben een super groot team die alles doet, alles kan en alles wil.",
                            "updated_at": {
                                "date": "2018-07-07 15:08:54.000000",
                                "timezone_type": 3,
                                "timezone": "Europe/Amsterdam"
                            }
                        }
                    ]
                },
                {
                    "id": 2,
                    "name": "Name van type People",
                    "function": "Function van type People",
                    "intro": "Intro van type People",
                    "content": "Content van type People",
                    "principal_investigator": 0,
                    "photo": "/img/healthcareprovider.jpg",
                    "photo_detail": "/img/healthcareprovider_profile.jpg",
                    "teams": [
                        {
                            "id": 1,
                            "title": "Prinses Maxima Centrum Team",
                            "intro": "We hebben een super groot team die alles doet, alles kan en alles wil.",
                            "updated_at": {
                                "date": "2018-07-07 15:08:54.000000",
                                "timezone_type": 3,
                                "timezone": "Europe/Amsterdam"
                            }
                        }
                    ]
                }
            ]
        },
        "Headers": {
            "Content-Type": "application/json"
        }
    }
}