{
    "Request": {
        "Path": {
            "Matchers": [
                {
                    "Name": "WildcardMatcher",
                    "Pattern": "/pmc/api/diseases/2",
                    "IgnoreCase": false
                }
            ]
        },
        "Methods": [
            "GET"
        ]
    },
    "Response": {
        "StatusCode": 200,
        "BodyDestination": "SameAsSource",
        "BodyAsJson": {
            "data": [
                {
                    "id": 1,
                    "title": "Bullets",
                    "intro": "Op deze pagina dient een bullet list getoond te worden.",
                    "content": "Dit is de lijst:<br />\r\n<ul>\r\n<li>Het allereerste item met tekst</li>\r\n<li>Item2</li>\r\n<li>Item met&nbsp;een spatie</li>\r\n</ul>\r\n",
                    "links_title": "Linktitel van Bullets",
                    "updated_at": {
                        "date": "2018-07-09 11:07:02.000000",
                        "timezone_type": 3,
                        "timezone": "Europe/Amsterdam"
                    },
                    "links": []
                },
                {
                    "id": 2,
                    "title": "Title van type Diseases",
                    "intro": "Intro van type Diseases",
                    "content": "Content van type Diseases",
                    "links_title": "Links Title van type Diseases",
                    "updated_at": {
                        "date": "2018-07-09 11:07:02.000000",
                        "timezone_type": 3,
                        "timezone": "Europe/Amsterdam"
                    },
                    "links": []
                }

            ]
        },
        "Headers": {
            "Content-Type": "application/json"
        }
    }
}