{
    "Request": {
        "Path": {
            "Matchers": [
                {
                    "Name": "WildcardMatcher",
                    "Pattern": "/pmc/api/services/2/2",
                    "IgnoreCase": false
                }
            ]
        },
        "Methods": [
            "GET"
        ]
    },
    "Response": {
        "StatusCode": 200,
        "BodyDestination": "SameAsSource",
        "BodyAsJson": {
            "data": {
                "id": 2,
                "title": "Title van type Services",
                "intro": "<p>Dit is de intro van type Services</p>",
                "content": "<p>Dit is de content van type Services.</p>",
                "links_title": "Dit is de links title van type Services",
                "updated_at": null,
                "links": []
            }
        },
        "Headers": {
            "Content-Type": "application/json"
        }
    }
}