{
    "Request": {
        "Path": {
            "Matchers": [
                {
                    "Name": "WildcardMatcher",
                    "Pattern": "/pmc/api/teams/2/1",
                    "IgnoreCase": false
                }
            ]
        },
        "Methods": [
            "GET"
        ]
    },
    "Response": {
        "StatusCode": 200,
        "BodyDestination": "SameAsSource",
        "BodyAsJson": {
            "data": {
                "id": 1,
                "title": "Prinses Maxima Centrum Team",
                "intro": "We hebben een super groot team die alles doet, alles kan en alles wil.",
                "updated_at": {
                    "date": "2018-07-07 15:08:54.000000",
                    "timezone_type": 3,
                    "timezone": "Europe/Amsterdam"
                }
            }
        },
        "Headers": {
            "Content-Type": "application/json"
        }
    }
}